<?xml version="1.0" encoding="utf-8" standalone="no"?>
<!DOCTYPE svg PUBLIC "-//W3C//DTD SVG 1.1//EN"
  "http://www.w3.org/Graphics/SVG/1.1/DTD/svg11.dtd">
<!-- Created with matplotlib (http://matplotlib.org/) -->
<svg height="371pt" version="1.1" viewBox="0 0 507 371" width="507pt" xmlns="http://www.w3.org/2000/svg" xmlns:xlink="http://www.w3.org/1999/xlink">
 <defs>
  <style type="text/css">
*{stroke-linecap:square;stroke-linejoin:round;}
  </style>
 </defs>
 <g id="figure_1">
  <g id="patch_1">
   <path d="
M0 371.928
L507.436 371.928
L507.436 0
L0 0
z
" style="fill:none;opacity:0.0;"/>
  </g>
  <g id="axes_1">
   <g id="line2d_1">
    <path clip-path="url(#p602343626b)" d="
M52.7188 176.4
L118.41 176.4
L119.903 197.141
L121.396 124.819
L122.889 172.387
L124.382 172.249
L125.875 148.74
L127.368 85.5831
L128.861 87.4311
L130.354 84.6
L131.847 83.0344
L133.339 42.8553
L134.832 95.4643
L136.325 59.4874
L137.818 65.1225
L139.311 73.9188
L140.804 72.6509
L142.297 19.3091
L143.79 85.452
L145.283 20.9178
L146.776 60.413
L148.269 87.7779
L149.762 36.4524
L151.255 72.2319
L152.748 95.6904
L154.241 57.4451
L155.734 62.0872
L157.227 106.087
L158.72 96.4864
L160.213 100.898
L161.706 96.1774
L163.199 115.576
L164.692 147.395
L166.185 138.352
L167.678 125.286
L169.171 163.481
L170.664 173.316
L172.157 171.336
L173.65 183.506
L175.143 187.616
L176.636 168.918
L178.129 189.982
L179.622 182.175
L181.115 172.045
L182.608 173.619
L184.101 179.611
L185.594 198.147
L187.087 190.597
L188.58 177.667
L190.073 208.684
L191.566 204.872
L193.059 181.969
L194.552 194.585
L196.045 180.807
L197.537 195.227
L199.03 195.594
L200.523 192.759
L202.016 187.155
L203.509 186.703
L205.002 187.697
L206.495 195.708
L207.988 167.601
L209.481 192.557
L210.974 172.16
L212.467 170.358
L213.96 177.78
L215.453 165.776
L216.946 155.934
L218.439 180.147
L219.932 152.123
L221.425 169.586
L222.918 167.828
L224.411 156.775
L225.904 167.119
L227.397 161.401
L228.89 165.376
L230.383 159
L231.876 180.585
L233.369 169.293
L234.862 169.958
L236.355 170.127
L237.848 184.382
L239.341 172.8
L240.834 171.294
L242.327 178.25
L243.82 183.084
L245.313 185.794
L246.806 181.357
L248.299 198.542
L249.792 198.853
L251.285 192.873
L252.778 197.706
L254.271 191.725
L255.764 198.621
L257.257 203.08
L258.75 205.427
L260.242 196.583
L261.735 208.565
L263.228 211.432
L264.721 203.263
L266.214 203.803
L267.707 202.956
L269.2 214.578
L270.693 204.89
L272.186 208.152
L273.679 200.608
L275.172 198.243
L276.665 209.159
L278.158 207.828
L279.651 197.882
L281.144 199.313
L282.637 202.356
L284.13 198.223
L285.623 192.117
L287.116 190.792
L288.609 191.832
L290.102 185.421
L291.595 184.722
L293.088 185.508
L299.06 172.189
L300.553 170.154
L302.046 173.621
L303.539 173.705
L305.032 173.443
L306.525 170.769
L308.018 163.907
L309.511 161.623
L311.004 165.413
L312.497 164.167
L313.99 161.181
L315.483 160.086
L316.976 157.389
L318.469 165.018
L319.962 158.86
L321.455 155.727
L322.948 156.895
L324.44 156.039
L325.933 161.05
L327.426 163.764
L328.919 157.652
L330.412 163.809
L331.905 166.466
L333.398 165.595
L334.891 161.662
L336.384 161.073
L337.877 162.09
L339.37 166.706
L340.863 167.79
L342.356 165.245
L343.849 171.512
L345.342 168.074
L346.835 168.346
L348.328 168.81
L349.821 174.052
L351.314 172.468
L352.807 175.944
L354.3 174.678
L355.793 177.283
L357.286 177.002
L358.779 178.123
L360.272 178.162
L361.765 179.67
L363.258 179.959
L364.751 177.283
L366.244 177.532
L367.737 177.09
L369.23 179.311
L370.723 181.082
L372.216 180.988
L373.709 178.303
L375.202 178.012
L376.695 177.365
L378.188 179.586
L379.681 178.288
L381.174 177.986
L382.667 174.895
L384.16 176.795
L385.653 178.066
L387.146 178.538
L388.638 174.338
L390.131 177.796
L391.624 177.529
L393.117 173.997
L394.61 174.723
L396.103 175.705
L397.596 173.615
L399.089 176.631
L402.075 174.157
L403.568 174.989
L405.061 176.054
L406.554 173.473
L408.047 176.195
L409.54 177.021
L411.033 176.565
L412.526 175.578
L414.019 175.792
L415.512 175.778
L417.005 176.644
L418.498 175.724
L419.991 176.165
L421.484 176.401
L422.977 177.093
L424.47 176.541
L425.963 179.019
L427.456 177.167
L428.949 177.468
L430.442 179.238
L431.935 178.639
L433.428 180.025
L434.921 179.004
L436.414 179.995
L437.907 179.517
L439.4 178.907
L440.893 180.884
L442.386 181.424
L443.879 180.185
L445.372 179.733
L446.865 179.96
L449.851 181.129
L451.343 179.368
L452.836 181.214
L454.329 180.905
L455.822 178.988
L457.315 179.166
L458.808 179.143
L460.301 179.269
L461.794 178.2
L463.287 179.514
L464.78 179.155
L466.273 178.527
L467.766 177.488
L469.259 178.529
L470.752 176.88
L472.245 176.757
L473.738 176.134
L475.231 176.039
L476.724 176.529
L478.217 175.572
L479.71 176.705
L481.203 175.999
L482.696 174.703
L485.682 174.74
L487.175 174.208
L488.668 174.539
L490.161 174.202
L491.654 175.103
L493.147 175.076
L494.64 174.168
L496.133 173.725
L497.626 174.729
L499.119 173.768
L499.119 173.768" style="fill:none;stroke:#000000;stroke-width:5;"/>
   </g>
   <g id="line2d_2">
    <path clip-path="url(#p602343626b)" d="
M52.7188 176.4
L499.119 176.4" style="fill:none;opacity:0.5;stroke:#000000;stroke-width:5;"/>
   </g>
   <g id="matplotlib.axis_1">
    <g id="xtick_1">
     <g id="line2d_3">
      <defs>
       <path d="
M0 0
L0 -4" id="ma8d81a02be" style="stroke:#000000;stroke-linecap:butt;stroke-width:3;"/>
      </defs>
      <g>
       <use style="stroke:#000000;stroke-linecap:butt;stroke-width:3;" x="52.71875" xlink:href="#ma8d81a02be" y="349.2"/>
      </g>
     </g>
     <g id="text_1">
      <!-- 0 -->
      <defs>
       <path d="
M31.7812 66.4062
Q24.1719 66.4062 20.3281 58.9062
Q16.5 51.4219 16.5 36.375
Q16.5 21.3906 20.3281 13.8906
Q24.1719 6.39062 31.7812 6.39062
Q39.4531 6.39062 43.2812 13.8906
Q47.125 21.3906 47.125 36.375
Q47.125 51.4219 43.2812 58.9062
Q39.4531 66.4062 31.7812 66.4062
M31.7812 74.2188
Q44.0469 74.2188 50.5156 64.5156
Q56.9844 54.8281 56.9844 36.375
Q56.9844 17.9688 50.5156 8.26562
Q44.0469 -1.42188 31.7812 -1.42188
Q19.5312 -1.42188 13.0625 8.26562
Q6.59375 17.9688 6.59375 36.375
Q6.59375 54.8281 13.0625 64.5156
Q19.5312 74.2188 31.7812 74.2188" id="DejaVuSans-30"/>
      </defs>
      <g transform="translate(47.6796875 368.04375)scale(0.2 -0.2)">
       <use xlink:href="#DejaVuSans-30"/>
      </g>
     </g>
    </g>
    <g id="xtick_2">
     <g id="line2d_4">
      <g>
       <use style="stroke:#000000;stroke-linecap:butt;stroke-width:3;" x="141.99875" xlink:href="#ma8d81a02be" y="349.2"/>
      </g>
     </g>
     <g id="text_2">
      <!-- 1 -->
      <defs>
       <path d="
M12.4062 8.29688
L28.5156 8.29688
L28.5156 63.9219
L10.9844 60.4062
L10.9844 69.3906
L28.4219 72.9062
L38.2812 72.9062
L38.2812 8.29688
L54.3906 8.29688
L54.3906 0
L12.4062 0
z
" id="DejaVuSans-31"/>
      </defs>
      <g transform="translate(137.658125 367.78125)scale(0.2 -0.2)">
       <use xlink:href="#DejaVuSans-31"/>
      </g>
     </g>
    </g>
    <g id="xtick_3">
     <g id="line2d_5">
      <g>
       <use style="stroke:#000000;stroke-linecap:butt;stroke-width:3;" x="231.27875" xlink:href="#ma8d81a02be" y="349.2"/>
      </g>
     </g>
     <g id="text_3">
      <!-- 2 -->
      <defs>
       <path d="
M19.1875 8.29688
L53.6094 8.29688
L53.6094 0
L7.32812 0
L7.32812 8.29688
Q12.9375 14.1094 22.625 23.8906
Q32.3281 33.6875 34.8125 36.5312
Q39.5469 41.8438 41.4219 45.5312
Q43.3125 49.2188 43.3125 52.7812
Q43.3125 58.5938 39.2344 62.25
Q35.1562 65.9219 28.6094 65.9219
Q23.9688 65.9219 18.8125 64.3125
Q13.6719 62.7031 7.8125 59.4219
L7.8125 69.3906
Q13.7656 71.7812 18.9375 73
Q24.125 74.2188 28.4219 74.2188
Q39.75 74.2188 46.4844 68.5469
Q53.2188 62.8906 53.2188 53.4219
Q53.2188 48.9219 51.5312 44.8906
Q49.8594 40.875 45.4062 35.4062
Q44.1875 33.9844 37.6406 27.2188
Q31.1094 20.4531 19.1875 8.29688" id="DejaVuSans-32"/>
      </defs>
      <g transform="translate(226.650625 368.04375)scale(0.2 -0.2)">
       <use xlink:href="#DejaVuSans-32"/>
      </g>
     </g>
    </g>
    <g id="xtick_4">
     <g id="line2d_6">
      <g>
       <use style="stroke:#000000;stroke-linecap:butt;stroke-width:3;" x="320.55875" xlink:href="#ma8d81a02be" y="349.2"/>
      </g>
     </g>
     <g id="text_4">
      <!-- 3 -->
      <defs>
       <path d="
M40.5781 39.3125
Q47.6562 37.7969 51.625 33
Q55.6094 28.2188 55.6094 21.1875
Q55.6094 10.4062 48.1875 4.48438
Q40.7656 -1.42188 27.0938 -1.42188
Q22.5156 -1.42188 17.6562 -0.515625
Q12.7969 0.390625 7.625 2.20312
L7.625 11.7188
Q11.7188 9.32812 16.5938 8.10938
Q21.4844 6.89062 26.8125 6.89062
Q36.0781 6.89062 40.9375 10.5469
Q45.7969 14.2031 45.7969 21.1875
Q45.7969 27.6406 41.2812 31.2656
Q36.7656 34.9062 28.7188 34.9062
L20.2188 34.9062
L20.2188 43.0156
L29.1094 43.0156
Q36.375 43.0156 40.2344 45.9219
Q44.0938 48.8281 44.0938 54.2969
Q44.0938 59.9062 40.1094 62.9062
Q36.1406 65.9219 28.7188 65.9219
Q24.6562 65.9219 20.0156 65.0312
Q15.375 64.1562 9.8125 62.3125
L9.8125 71.0938
Q15.4375 72.6562 20.3438 73.4375
Q25.25 74.2188 29.5938 74.2188
Q40.8281 74.2188 47.3594 69.1094
Q53.9062 64.0156 53.9062 55.3281
Q53.9062 49.2656 50.4375 45.0938
Q46.9688 40.9219 40.5781 39.3125" id="DejaVuSans-33"/>
      </defs>
      <g transform="translate(315.7603125 368.04375)scale(0.2 -0.2)">
       <use xlink:href="#DejaVuSans-33"/>
      </g>
     </g>
    </g>
    <g id="xtick_5">
     <g id="line2d_7">
      <g>
       <use style="stroke:#000000;stroke-linecap:butt;stroke-width:3;" x="409.83875" xlink:href="#ma8d81a02be" y="349.2"/>
      </g>
     </g>
     <g id="text_5">
      <!-- 4 -->
      <defs>
       <path d="
M37.7969 64.3125
L12.8906 25.3906
L37.7969 25.3906
z

M35.2031 72.9062
L47.6094 72.9062
L47.6094 25.3906
L58.0156 25.3906
L58.0156 17.1875
L47.6094 17.1875
L47.6094 0
L37.7969 0
L37.7969 17.1875
L4.89062 17.1875
L4.89062 26.7031
z
" id="DejaVuSans-34"/>
      </defs>
      <g transform="translate(404.52625 367.78125)scale(0.2 -0.2)">
       <use xlink:href="#DejaVuSans-34"/>
      </g>
     </g>
    </g>
    <g id="xtick_6">
     <g id="line2d_8">
      <g>
       <use style="stroke:#000000;stroke-linecap:butt;stroke-width:3;" x="499.11875" xlink:href="#ma8d81a02be" y="349.2"/>
      </g>
     </g>
     <g id="text_6">
      <!-- 5 -->
      <defs>
       <path d="
M10.7969 72.9062
L49.5156 72.9062
L49.5156 64.5938
L19.8281 64.5938
L19.8281 46.7344
Q21.9688 47.4688 24.1094 47.8281
Q26.2656 48.1875 28.4219 48.1875
Q40.625 48.1875 47.75 41.5
Q54.8906 34.8125 54.8906 23.3906
Q54.8906 11.625 47.5625 5.09375
Q40.2344 -1.42188 26.9062 -1.42188
Q22.3125 -1.42188 17.5469 -0.640625
Q12.7969 0.140625 7.71875 1.70312
L7.71875 11.625
Q12.1094 9.23438 16.7969 8.0625
Q21.4844 6.89062 26.7031 6.89062
Q35.1562 6.89062 40.0781 11.3281
Q45.0156 15.7656 45.0156 23.3906
Q45.0156 31 40.0781 35.4375
Q35.1562 39.8906 26.7031 39.8906
Q22.75 39.8906 18.8125 39.0156
Q14.8906 38.1406 10.7969 36.2812
z
" id="DejaVuSans-35"/>
      </defs>
      <g transform="translate(494.4015625 367.78125)scale(0.2 -0.2)">
       <use xlink:href="#DejaVuSans-35"/>
      </g>
     </g>
    </g>
   </g>
   <g id="matplotlib.axis_2">
    <g id="ytick_1">
     <g id="line2d_9">
      <defs>
       <path d="
M0 0
L4 0" id="maacc5277f2" style="stroke:#000000;stroke-linecap:butt;stroke-width:3;"/>
      </defs>
      <g>
       <use style="stroke:#000000;stroke-linecap:butt;stroke-width:3;" x="52.71875" xlink:href="#maacc5277f2" y="333.490909091"/>
      </g>
     </g>
     <g id="text_7">
      <!-- −1.0 -->
      <defs>
       <path d="
M10.6875 12.4062
L21 12.4062
L21 0
L10.6875 0
z
" id="DejaVuSans-2e"/>
       <path d="
M10.5938 35.5
L73.1875 35.5
L73.1875 27.2031
L10.5938 27.2031
z
" id="DejaVuSans-2212"/>
      </defs>
      <g transform="translate(3.6 340.770596591)scale(0.2 -0.2)">
       <use xlink:href="#DejaVuSans-2212"/>
       <use x="83.7890625" xlink:href="#DejaVuSans-31"/>
       <use x="147.412109375" xlink:href="#DejaVuSans-2e"/>
       <use x="179.19921875" xlink:href="#DejaVuSans-30"/>
      </g>
     </g>
    </g>
    <g id="ytick_2">
     <g id="line2d_10">
      <g>
       <use style="stroke:#000000;stroke-linecap:butt;stroke-width:3;" x="52.71875" xlink:href="#maacc5277f2" y="254.945454545"/>
      </g>
     </g>
     <g id="text_8">
      <!-- −0.5 -->
      <g transform="translate(4.01875 262.225142045)scale(0.2 -0.2)">
       <use xlink:href="#DejaVuSans-2212"/>
       <use x="83.7890625" xlink:href="#DejaVuSans-30"/>
       <use x="147.412109375" xlink:href="#DejaVuSans-2e"/>
       <use x="179.19921875" xlink:href="#DejaVuSans-35"/>
      </g>
     </g>
    </g>
    <g id="ytick_3">
     <g id="line2d_11">
      <g>
       <use style="stroke:#000000;stroke-linecap:butt;stroke-width:3;" x="52.71875" xlink:href="#maacc5277f2" y="176.4"/>
      </g>
     </g>
     <g id="text_9">
      <!-- 0.0 -->
      <g transform="translate(19.559375 183.6796875)scale(0.2 -0.2)">
       <use xlink:href="#DejaVuSans-30"/>
       <use x="63.623046875" xlink:href="#DejaVuSans-2e"/>
       <use x="95.41015625" xlink:href="#DejaVuSans-30"/>
      </g>
     </g>
    </g>
    <g id="ytick_4">
     <g id="line2d_12">
      <g>
       <use style="stroke:#000000;stroke-linecap:butt;stroke-width:3;" x="52.71875" xlink:href="#maacc5277f2" y="97.8545454545"/>
      </g>
     </g>
     <g id="text_10">
      <!-- 0.5 -->
      <g transform="translate(19.978125 105.134232955)scale(0.2 -0.2)">
       <use xlink:href="#DejaVuSans-30"/>
       <use x="63.623046875" xlink:href="#DejaVuSans-2e"/>
       <use x="95.41015625" xlink:href="#DejaVuSans-35"/>
      </g>
     </g>
    </g>
    <g id="ytick_5">
     <g id="line2d_13">
      <g>
       <use style="stroke:#000000;stroke-linecap:butt;stroke-width:3;" x="52.71875" xlink:href="#maacc5277f2" y="19.3090909091"/>
      </g>
     </g>
     <g id="text_11">
      <!-- 1.0 -->
      <g transform="translate(20.4375 26.5887784091)scale(0.2 -0.2)">
       <use xlink:href="#DejaVuSans-31"/>
       <use x="63.623046875" xlink:href="#DejaVuSans-2e"/>
       <use x="95.41015625" xlink:href="#DejaVuSans-30"/>
      </g>
     </g>
    </g>
   </g>
  </g>
 </g>
 <defs>
  <clipPath id="p602343626b">
   <rect height="345.6" width="446.4" x="52.71875" y="3.6"/>
  </clipPath>
 </defs>
</svg>
