<?xml version="1.0" encoding="UTF-8" standalone="no"?>
<!-- Created with Inkscape (http://www.inkscape.org/) -->

<svg
   xmlns:dc="http://purl.org/dc/elements/1.1/"
   xmlns:cc="http://creativecommons.org/ns#"
   xmlns:rdf="http://www.w3.org/1999/02/22-rdf-syntax-ns#"
   xmlns:svg="http://www.w3.org/2000/svg"
   xmlns="http://www.w3.org/2000/svg"
   xmlns:xlink="http://www.w3.org/1999/xlink"
   xmlns:sodipodi="http://sodipodi.sourceforge.net/DTD/sodipodi-0.dtd"
   xmlns:inkscape="http://www.inkscape.org/namespaces/inkscape"
   width="744.09448819"
   height="1052.3622047"
   id="svg8175"
   version="1.1"
   inkscape:version="0.48.4 r9939"
   sodipodi:docname="auditory-fear-conditioning-model.pdf"
   enable-background="new">
  <sodipodi:namedview
     id="base"
     pagecolor="#ffffff"
     bordercolor="#666666"
     borderopacity="1.0"
     inkscape:pageopacity="0.0"
     inkscape:pageshadow="2"
     inkscape:zoom="2.0199048"
     inkscape:cx="410.66292"
     inkscape:cy="724.21023"
     inkscape:document-units="px"
     inkscape:current-layer="layer3"
     showgrid="true"
     inkscape:window-width="1920"
     inkscape:window-height="1176"
     inkscape:window-x="0"
     inkscape:window-y="24"
     inkscape:window-maximized="1">
    <inkscape:grid
       type="xygrid"
       id="grid8691" />
  </sodipodi:namedview>
  <defs
     id="defs8177">
    <marker
       inkscape:stockid="Arrow2Sstart"
       orient="auto"
       refY="0.0"
       refX="0.0"
       id="Arrow2Sstart"
       style="overflow:visible">
      <path
         id="path9369"
         style="fill-rule:evenodd;stroke-width:0.62500000;stroke-linejoin:round"
         d="M 8.7185878,4.0337352 L -2.2072895,0.016013256 L 8.7185884,-4.0017078 C 6.9730900,-1.6296469 6.9831476,1.6157441 8.7185878,4.0337352 z "
         transform="scale(0.3) translate(-2.3,0)" />
    </marker>
    <marker
       inkscape:stockid="Arrow2Lend"
       orient="auto"
       refY="0.0"
       refX="0.0"
       id="Arrow2Lend"
       style="overflow:visible;">
      <path
         id="path9360"
         style="fill-rule:evenodd;stroke-width:0.62500000;stroke-linejoin:round;"
         d="M 8.7185878,4.0337352 L -2.2072895,0.016013256 L 8.7185884,-4.0017078 C 6.9730900,-1.6296469 6.9831476,1.6157441 8.7185878,4.0337352 z "
         transform="scale(1.1) rotate(180) translate(1,0)" />
    </marker>
    <linearGradient
       inkscape:collect="always"
       id="linearGradient10796">
      <stop
         style="stop-color:#000000;stop-opacity:1;"
         offset="0"
         id="stop10798" />
      <stop
         style="stop-color:#000000;stop-opacity:0;"
         offset="1"
         id="stop10800" />
    </linearGradient>
    <marker
       inkscape:stockid="Arrow1Mend"
       orient="auto"
       refY="0.0"
       refX="0.0"
       id="Arrow1Mend"
       style="overflow:visible;">
      <path
         id="path9348"
         d="M 0.0,0.0 L 5.0,-5.0 L -12.5,0.0 L 5.0,5.0 L 0.0,0.0 z "
         style="fill-rule:evenodd;stroke:#000000;stroke-width:1.0pt;"
         transform="scale(0.4) rotate(180) translate(10,0)" />
    </marker>
    <marker
       style="overflow:visible"
       id="marker10101"
       refX="0"
       refY="0"
       orient="auto"
       inkscape:stockid="Arrow2Mend">
      <path
         transform="scale(-0.6,-0.6)"
         d="M 8.7185878,4.0337352 -2.2072895,0.01601326 8.7185884,-4.0017078 c -1.7454984,2.3720609 -1.7354408,5.6174519 -6e-7,8.035443 z"
         style="fill-rule:evenodd;stroke-width:0.625;stroke-linejoin:round"
         id="path10103"
         inkscape:connector-curvature="0" />
    </marker>
    <marker
       style="overflow:visible"
       id="marker8705"
       refX="0"
       refY="0"
       orient="auto"
       inkscape:stockid="Arrow2Mend">
      <path
         transform="scale(-0.6,-0.6)"
         d="M 8.7185878,4.0337352 -2.2072895,0.01601326 8.7185884,-4.0017078 c -1.7454984,2.3720609 -1.7354408,5.6174519 -6e-7,8.035443 z"
         style="fill-rule:evenodd;stroke-width:0.625;stroke-linejoin:round"
         id="path8707"
         inkscape:connector-curvature="0" />
    </marker>
    <marker
       style="overflow:visible"
       id="marker8709"
       refX="0"
       refY="0"
       orient="auto"
       inkscape:stockid="Arrow2Mend">
      <path
         transform="scale(-0.6,-0.6)"
         d="M 8.7185878,4.0337352 -2.2072895,0.01601326 8.7185884,-4.0017078 c -1.7454984,2.3720609 -1.7354408,5.6174519 -6e-7,8.035443 z"
         style="fill-rule:evenodd;stroke-width:0.625;stroke-linejoin:round"
         id="path8711"
         inkscape:connector-curvature="0" />
    </marker>
    <marker
       style="overflow:visible"
       id="marker8713"
       refX="0"
       refY="0"
       orient="auto"
       inkscape:stockid="Arrow2Mend">
      <path
         transform="scale(-0.6,-0.6)"
         d="M 8.7185878,4.0337352 -2.2072895,0.01601326 8.7185884,-4.0017078 c -1.7454984,2.3720609 -1.7354408,5.6174519 -6e-7,8.035443 z"
         style="fill-rule:evenodd;stroke-width:0.625;stroke-linejoin:round"
         id="path8715"
         inkscape:connector-curvature="0" />
    </marker>
    <marker
       style="overflow:visible"
       id="marker8717"
       refX="0"
       refY="0"
       orient="auto"
       inkscape:stockid="Arrow2Mend">
      <path
         transform="scale(-0.6,-0.6)"
         d="M 8.7185878,4.0337352 -2.2072895,0.01601326 8.7185884,-4.0017078 c -1.7454984,2.3720609 -1.7354408,5.6174519 -6e-7,8.035443 z"
         style="fill-rule:evenodd;stroke-width:0.625;stroke-linejoin:round"
         id="path8719"
         inkscape:connector-curvature="0" />
    </marker>
    <marker
       style="overflow:visible"
       id="marker8721"
       refX="0"
       refY="0"
       orient="auto"
       inkscape:stockid="Arrow2Mend">
      <path
         transform="scale(-0.6,-0.6)"
         d="M 8.7185878,4.0337352 -2.2072895,0.01601326 8.7185884,-4.0017078 c -1.7454984,2.3720609 -1.7354408,5.6174519 -6e-7,8.035443 z"
         style="fill-rule:evenodd;stroke-width:0.625;stroke-linejoin:round"
         id="path8723"
         inkscape:connector-curvature="0" />
    </marker>
    <marker
       style="overflow:visible"
       id="marker8725"
       refX="0"
       refY="0"
       orient="auto"
       inkscape:stockid="Arrow2Mend">
      <path
         transform="scale(-0.6,-0.6)"
         d="M 8.7185878,4.0337352 -2.2072895,0.01601326 8.7185884,-4.0017078 c -1.7454984,2.3720609 -1.7354408,5.6174519 -6e-7,8.035443 z"
         style="fill-rule:evenodd;stroke-width:0.625;stroke-linejoin:round"
         id="path8727"
         inkscape:connector-curvature="0" />
    </marker>
    <marker
       style="overflow:visible"
       id="marker8729"
       refX="0"
       refY="0"
       orient="auto"
       inkscape:stockid="Arrow2Mend">
      <path
         transform="scale(-0.6,-0.6)"
         d="M 8.7185878,4.0337352 -2.2072895,0.01601326 8.7185884,-4.0017078 c -1.7454984,2.3720609 -1.7354408,5.6174519 -6e-7,8.035443 z"
         style="fill-rule:evenodd;stroke-width:0.625;stroke-linejoin:round"
         id="path8731"
         inkscape:connector-curvature="0" />
    </marker>
    <marker
       style="overflow:visible"
       id="marker8733"
       refX="0"
       refY="0"
       orient="auto"
       inkscape:stockid="Arrow2Mend">
      <path
         transform="scale(-0.6,-0.6)"
         d="M 8.7185878,4.0337352 -2.2072895,0.01601326 8.7185884,-4.0017078 c -1.7454984,2.3720609 -1.7354408,5.6174519 -6e-7,8.035443 z"
         style="fill-rule:evenodd;stroke-width:0.625;stroke-linejoin:round"
         id="path8735"
         inkscape:connector-curvature="0" />
    </marker>
    <marker
       style="overflow:visible"
       id="marker8737"
       refX="0"
       refY="0"
       orient="auto"
       inkscape:stockid="Arrow2Mend">
      <path
         transform="scale(-0.6,-0.6)"
         d="M 8.7185878,4.0337352 -2.2072895,0.01601326 8.7185884,-4.0017078 c -1.7454984,2.3720609 -1.7354408,5.6174519 -6e-7,8.035443 z"
         style="fill-rule:evenodd;stroke-width:0.625;stroke-linejoin:round"
         id="path8739"
         inkscape:connector-curvature="0" />
    </marker>
    <marker
       style="overflow:visible"
       id="marker8741"
       refX="0"
       refY="0"
       orient="auto"
       inkscape:stockid="Arrow2Mend">
      <path
         transform="scale(-0.6,-0.6)"
         d="M 8.7185878,4.0337352 -2.2072895,0.01601326 8.7185884,-4.0017078 c -1.7454984,2.3720609 -1.7354408,5.6174519 -6e-7,8.035443 z"
         style="fill-rule:evenodd;stroke-width:0.625;stroke-linejoin:round"
         id="path8743"
         inkscape:connector-curvature="0" />
    </marker>
    <marker
       style="overflow:visible"
       id="DotM-79B"
       refX="0"
       refY="0"
       orient="auto"
       inkscape:stockid="DotM-79B">
      <path
         transform="matrix(0.4,0,0,0.4,2.96,0.4)"
         style="fill:#2a7fff;fill-rule:evenodd;stroke:#2a7fff;stroke-width:1pt"
         d="m -2.5,-1 c 0,2.76 -2.24,5 -5,5 -2.76,0 -5,-2.24 -5,-5 0,-2.76 2.24,-5 5,-5 2.76,0 5,2.24 5,5 z"
         id="path7819"
         inkscape:connector-curvature="0" />
    </marker>
    <marker
       style="overflow:visible"
       id="DotM-72"
       refX="0"
       refY="0"
       orient="auto"
       inkscape:stockid="DotM-72">
      <path
         transform="matrix(0.4,0,0,0.4,2.96,0.4)"
         style="fill:#2a7fff;fill-rule:evenodd;stroke:#2a7fff;stroke-width:1pt"
         d="m -2.5,-1 c 0,2.76 -2.24,5 -5,5 -2.76,0 -5,-2.24 -5,-5 0,-2.76 2.24,-5 5,-5 2.76,0 5,2.24 5,5 z"
         id="path8060"
         inkscape:connector-curvature="0" />
    </marker>
    <marker
       style="overflow:visible"
       id="DotM-77B"
       refX="0"
       refY="0"
       orient="auto"
       inkscape:stockid="DotM-77B">
      <path
         transform="matrix(0.4,0,0,0.4,2.96,0.4)"
         style="fill:#2a7fff;fill-rule:evenodd;stroke:#2a7fff;stroke-width:1pt"
         d="m -2.5,-1 c 0,2.76 -2.24,5 -5,5 -2.76,0 -5,-2.24 -5,-5 0,-2.76 2.24,-5 5,-5 2.76,0 5,2.24 5,5 z"
         id="path7822"
         inkscape:connector-curvature="0" />
    </marker>
    <marker
       style="overflow:visible"
       id="StopMYM"
       refX="0"
       refY="0"
       orient="auto"
       inkscape:stockid="StopMYM">
      <path
         inkscape:connector-curvature="0"
         transform="scale(0.4,0.4)"
         style="fill:none;stroke:#2a7fff;stroke-width:1pt"
         d="M 0,5.65 0,-5.65"
         id="path7825" />
    </marker>
    <marker
       style="overflow:visible"
       id="DotMqw"
       refX="0"
       refY="0"
       orient="auto"
       inkscape:stockid="DotMqw">
      <path
         inkscape:connector-curvature="0"
         transform="matrix(0.4,0,0,0.4,2.96,0.4)"
         style="fill:#2a7fff;fill-rule:evenodd;stroke:#2a7fff;stroke-width:1pt"
         d="m -2.5,-1 c 0,2.76 -2.24,5 -5,5 -2.76,0 -5,-2.24 -5,-5 0,-2.76 2.24,-5 5,-5 2.76,0 5,2.24 5,5 z"
         id="path7828" />
    </marker>
    <marker
       style="overflow:visible"
       id="DotMlN"
       refX="0"
       refY="0"
       orient="auto"
       inkscape:stockid="DotMlN">
      <path
         inkscape:connector-curvature="0"
         transform="matrix(0.4,0,0,0.4,2.96,0.4)"
         style="fill:#2a7fff;fill-rule:evenodd;stroke:#2a7fff;stroke-width:1pt"
         d="m -2.5,-1 c 0,2.76 -2.24,5 -5,5 -2.76,0 -5,-2.24 -5,-5 0,-2.76 2.24,-5 5,-5 2.76,0 5,2.24 5,5 z"
         id="path7816" />
    </marker>
    <radialGradient
       inkscape:collect="always"
       xlink:href="#linearGradient10796-3"
       id="radialGradient10802-6"
       cx="295"
       cy="277.36218"
       fx="295"
       fy="277.36218"
       r="11.111111"
       gradientUnits="userSpaceOnUse" />
    <linearGradient
       inkscape:collect="always"
       id="linearGradient10796-3">
      <stop
         style="stop-color:#000000;stop-opacity:1;"
         offset="0"
         id="stop10798-3" />
      <stop
         style="stop-color:#000000;stop-opacity:0;"
         offset="1"
         id="stop10800-7" />
    </linearGradient>
    <radialGradient
       r="11.111111"
       fy="277.36218"
       fx="295"
       cy="277.36218"
       cx="295"
       gradientUnits="userSpaceOnUse"
       id="radialGradient10819"
       xlink:href="#linearGradient10796-3"
       inkscape:collect="always" />
    <marker
       style="overflow:visible"
       id="marker8741M"
       refX="0"
       refY="0"
       orient="auto"
       inkscape:stockid="marker8741M">
      <path
         transform="scale(-0.6,-0.6)"
         d="M 8.7185878,4.0337352 -2.2072895,0.01601326 8.7185884,-4.0017078 c -1.7454984,2.3720609 -1.7354408,5.6174519 -6e-7,8.035443 z"
         style="stroke-linejoin:round;stroke:#2a7fff;stroke-width:0.625;fill:#2a7fff;fill-rule:evenodd"
         id="path14182"
         inkscape:connector-curvature="0" />
    </marker>
    <marker
       style="overflow:visible"
       id="marker8741H"
       refX="0"
       refY="0"
       orient="auto"
       inkscape:stockid="marker8741H">
      <path
         transform="scale(-0.6,-0.6)"
         d="M 8.7185878,4.0337352 -2.2072895,0.01601326 8.7185884,-4.0017078 c -1.7454984,2.3720609 -1.7354408,5.6174519 -6e-7,8.035443 z"
         style="stroke-linejoin:round;stroke:#2a7fff;stroke-width:0.625;fill:#2a7fff;fill-rule:evenodd"
         id="path14185"
         inkscape:connector-curvature="0" />
    </marker>
    <marker
       style="overflow:visible"
       id="marker87417"
       refX="0"
       refY="0"
       orient="auto"
       inkscape:stockid="marker87417">
      <path
         transform="scale(-0.6,-0.6)"
         d="M 8.7185878,4.0337352 -2.2072895,0.01601326 8.7185884,-4.0017078 c -1.7454984,2.3720609 -1.7354408,5.6174519 -6e-7,8.035443 z"
         style="stroke-linejoin:round;stroke:#2a7fff;stroke-width:0.625;fill:#2a7fff;fill-rule:evenodd"
         id="path14188"
         inkscape:connector-curvature="0" />
    </marker>
    <marker
       style="overflow:visible"
       id="marker8741S"
       refX="0"
       refY="0"
       orient="auto"
       inkscape:stockid="marker8741S">
      <path
         transform="scale(-0.6,-0.6)"
         d="M 8.7185878,4.0337352 -2.2072895,0.01601326 8.7185884,-4.0017078 c -1.7454984,2.3720609 -1.7354408,5.6174519 -6e-7,8.035443 z"
         style="stroke-linejoin:round;stroke:#2a7fff;stroke-width:0.625;fill:#2a7fff;fill-rule:evenodd"
         id="path14191"
         inkscape:connector-curvature="0" />
    </marker>
    <marker
       style="overflow:visible"
       id="marker8741T"
       refX="0"
       refY="0"
       orient="auto"
       inkscape:stockid="marker8741T">
      <path
         transform="scale(-0.6,-0.6)"
         d="M 8.7185878,4.0337352 -2.2072895,0.01601326 8.7185884,-4.0017078 c -1.7454984,2.3720609 -1.7354408,5.6174519 -6e-7,8.035443 z"
         style="stroke-linejoin:round;stroke:#2ca02c;stroke-width:0.625;fill:#2ca02c;fill-rule:evenodd"
         id="path14464"
         inkscape:connector-curvature="0" />
    </marker>
    <marker
       style="overflow:visible"
       id="marker8741n"
       refX="0"
       refY="0"
       orient="auto"
       inkscape:stockid="marker8741n">
      <path
         transform="scale(-0.6,-0.6)"
         d="M 8.7185878,4.0337352 -2.2072895,0.01601326 8.7185884,-4.0017078 c -1.7454984,2.3720609 -1.7354408,5.6174519 -6e-7,8.035443 z"
         style="stroke-linejoin:round;stroke:#2ca02c;stroke-width:0.625;fill:#2ca02c;fill-rule:evenodd"
         id="path14467"
         inkscape:connector-curvature="0" />
    </marker>
    <radialGradient
       inkscape:collect="always"
       xlink:href="#linearGradient10796"
       id="radialGradient14670"
       gradientUnits="userSpaceOnUse"
       cx="295"
       cy="277.36218"
       fx="295"
       fy="277.36218"
       r="11.111111" />
  </defs>
  <metadata
     id="metadata8180">
    <rdf:RDF>
      <cc:Work
         rdf:about="">
        <dc:format>image/svg+xml</dc:format>
        <dc:type
           rdf:resource="http://purl.org/dc/dcmitype/StillImage" />
        <dc:title></dc:title>
      </cc:Work>
    </rdf:RDF>
  </metadata>
  <g
     inkscape:label="drawing"
     inkscape:groupmode="layer"
     id="layer1">
    <path
       transform="matrix(1.0971157,0,0,0.77278993,101.38524,245.77891)"
       d="m 410,189.86218 a 115,87.5 0 1 1 -230,0 115,87.5 0 1 1 230,0 z"
       sodipodi:ry="87.5"
       sodipodi:rx="115"
       sodipodi:cy="189.86218"
       sodipodi:cx="295"
       id="path3774"
       style="fill:none;stroke:#297fff;stroke-width:2.71508264999999982;stroke-linecap:square;stroke-linejoin:round;stroke-miterlimit:4;stroke-opacity:1;stroke-dasharray:none;stroke-dashoffset:0;display:inline"
       sodipodi:type="arc" />
    <rect
       ry="12.478552"
       y="363.49756"
       x="316.33838"
       height="57.5"
       width="87.5"
       id="rect3776-3-5"
       style="fill:none;stroke:#2a7fff;stroke-width:2.5;stroke-linecap:square;stroke-linejoin:round;stroke-miterlimit:4;stroke-opacity:1;stroke-dasharray:5.00000002, 5.00000002;stroke-dashoffset:0;display:inline" />
    <rect
       ry="12.590284"
       y="363.54904"
       x="446.23355"
       height="57.5"
       width="87.5"
       id="rect3776-3-5-9"
       style="fill:none;stroke:#2a7fff;stroke-width:2.5;stroke-linecap:square;stroke-linejoin:round;stroke-miterlimit:4;stroke-opacity:1;stroke-dasharray:4.99999993, 4.99999993;stroke-dashoffset:0;display:inline" />
    <rect
       ry="5.7383676"
       y="248.40903"
       x="110.90409"
       height="42"
       width="148"
       id="rect3776-3-31"
       style="stroke-linejoin:round;stroke-opacity:1;stroke:#2ca02c;stroke-linecap:square;stroke-miterlimit:4;stroke-dasharray:none;stroke-width:2;display:inline;fill:none" />
    <rect
       ry="8.5492496"
       y="376.80673"
       x="111.36699"
       height="62.573273"
       width="147.3938"
       id="rect3776-3-31-2"
       style="fill:none;stroke:#297fff;stroke-width:2;stroke-linecap:square;stroke-linejoin:round;stroke-miterlimit:4;stroke-opacity:1;stroke-dasharray:none;display:inline" />
    <rect
       ry="5.738368"
       y="312.67383"
       x="111.23465"
       height="42"
       width="148"
       id="rect3776-3-31-2-2"
       style="fill:none;stroke:#297fff;stroke-width:1.99999988000000006;stroke-linecap:square;stroke-linejoin:round;stroke-miterlimit:4;stroke-opacity:1;stroke-dasharray:none;display:inline" />
    <rect
       ry="3.2823055"
       y="404.45963"
       x="120.48814"
       height="24.023701"
       width="49.023701"
       id="rect3776-3-31-2-3"
       style="fill:none;stroke:#297fff;stroke-width:2;stroke-linecap:square;stroke-linejoin:round;stroke-miterlimit:4;stroke-opacity:1;stroke-dasharray:none;display:inline" />
    <rect
       ry="3.2582018"
       y="404.54785"
       x="180.58862"
       height="23.847282"
       width="68.847282"
       id="rect3776-3-31-2-3-4"
       style="fill:none;stroke:#297fff;stroke-width:2;stroke-linecap:square;stroke-linejoin:round;stroke-miterlimit:4;stroke-opacity:1;stroke-dasharray:none;display:inline" />
    <path
       style="opacity:0.75;fill:none;stroke:#2a7fff;stroke-width:2.5;stroke-linecap:round;stroke-linejoin:miter;stroke-miterlimit:4;stroke-opacity:1;stroke-dasharray:none;marker-end:url(#marker8741S)"
       d="m 145,403.63008 37.94262,-45.509"
       id="path4529"
       inkscape:connector-type="polyline"
       inkscape:connector-curvature="3" />
    <path
       style="opacity:0.75;fill:none;stroke:#2a7fff;stroke-width:2.5;stroke-linecap:round;stroke-linejoin:miter;stroke-miterlimit:4;stroke-opacity:1;stroke-dasharray:none;marker-end:url(#marker87417)"
       d="M 215,403.72469 186.76912,358.35504"
       id="path4803"
       inkscape:connector-type="polyline"
       inkscape:connector-curvature="3" />
    <path
       style="opacity:0.75;fill:none;stroke:#000000;stroke-width:2.5;stroke-linecap:round;stroke-linejoin:miter;stroke-miterlimit:4;stroke-opacity:1;stroke-dasharray:none;marker-end:url(#marker10101)"
       d="M 183.8658,486.16936 146.42937,431.81661"
       id="path5695"
       inkscape:connector-type="polyline"
       inkscape:connector-curvature="3" />
    <path
       style="opacity:0.75;fill:none;stroke:#000000;stroke-width:2.5;stroke-linecap:round;stroke-linejoin:miter;stroke-miterlimit:4;stroke-opacity:1;stroke-dasharray:none;marker-end:url(#marker10101)"
       d="M 186.11878,486.30761 214.6504,431.10897"
       id="path5697"
       inkscape:connector-type="polyline"
       inkscape:connector-curvature="3" />
    <path
       style="opacity:0.75;fill:none;stroke:#000000;stroke-width:2.5;stroke-linecap:round;stroke-linejoin:miter;stroke-miterlimit:4;stroke-opacity:1;stroke-dasharray:5.00000005, 5.00000005;stroke-dashoffset:0;marker-end:url(#marker10101)"
       d="M 313.78991,496.09759 218.51732,430.48501"
       id="path6208"
       inkscape:connector-type="polyline"
       inkscape:connector-curvature="3" />
    <path
       style="opacity:0.75;fill:none;stroke:#000000;stroke-width:2.5;stroke-linecap:round;stroke-linejoin:miter;stroke-miterlimit:4;stroke-opacity:1;stroke-dasharray:5.00000016, 5.00000016;stroke-dashoffset:0;marker-end:url(#marker10101)"
       d="m 315.13095,496.09758 43.28374,-71.17365"
       id="path6482"
       inkscape:connector-type="polyline"
       inkscape:connector-curvature="3" />
    <path
       style="opacity:0.75;fill:none;stroke:#000000;stroke-width:2.5;stroke-linecap:round;stroke-linejoin:miter;stroke-miterlimit:4;stroke-opacity:1;stroke-dasharray:5.00000016, 5.00000016;stroke-dashoffset:0;marker-end:url(#marker10101)"
       d="M 315.18927,496.27243 487.3363,423.71891"
       id="path6756"
       inkscape:connector-type="polyline"
       inkscape:connector-curvature="3" />
    <path
       style="opacity:0.75;fill:none;stroke:#2a7fff;stroke-width:2.5;stroke-linecap:round;stroke-linejoin:miter;stroke-miterlimit:4;stroke-opacity:1;stroke-dasharray:none;marker-end:url(#marker8741H)"
       d="m 260.25,332.88009 52.68192,57.20481"
       id="path7030"
       inkscape:connector-type="polyline"
       inkscape:connector-curvature="3" />
    <path
       style="opacity:0.75;fill:none;stroke:#2a7fff;stroke-width:2.5;stroke-linecap:round;stroke-linejoin:miter;stroke-miterlimit:4;stroke-opacity:1;stroke-dasharray:none;marker-end:url(#marker8741M)"
       d="m 260.25,407.38012 52.05235,-14.19923"
       id="path7032"
       inkscape:connector-type="polyline"
       inkscape:connector-curvature="3" />
    <path
       style="fill:none;stroke:#000000;stroke-width:1px;stroke-linecap:butt;stroke-linejoin:miter;stroke-opacity:1"
       d="m 190,335.6301 0,0"
       id="path7346"
       inkscape:connector-type="orthogonal"
       inkscape:connector-curvature="1" />
    <rect
       ry="7.7911363"
       y="248.95944"
       x="341.13083"
       height="57.024529"
       width="219.76181"
       id="rect3776-3-31-9"
       style="stroke-linejoin:round;stroke-opacity:1;stroke:#2ca02c;stroke-linecap:square;stroke-miterlimit:4;stroke-dasharray:none;stroke-width:2;display:inline;fill:none" />
    <path
       style="opacity:0.75;fill:none;stroke:#000000;stroke-width:2.5;stroke-linecap:round;stroke-linejoin:miter;stroke-miterlimit:4;stroke-opacity:1;stroke-dasharray:none;marker-end:url(#marker8741)"
       d="m 185.12663,311.52147 -0.11452,-17.57342"
       id="path9333"
       inkscape:connector-type="polyline"
       inkscape:connector-curvature="0" />
    <path
       style="opacity:0.75;fill:none;stroke:#2ca02c;stroke-width:2.5;stroke-linecap:round;stroke-linejoin:miter;stroke-miterlimit:4;stroke-opacity:1;stroke-dasharray:none;marker-end:url(#marker8741T)"
       d="m 404.2458,392.2649 38.40049,0.0168"
       id="path10029"
       inkscape:connector-type="polyline"
       inkscape:connector-curvature="0" />
    <rect
       ry="3.7572646"
       y="271.8403"
       x="356.83783"
       height="27.5"
       width="77.5"
       id="rect3776-3-31-4"
       style="stroke-linejoin:round;stroke-opacity:1;stroke:#2ca02c;stroke-linecap:square;stroke-miterlimit:4;stroke-dasharray:none;stroke-width:2.49999976000000013;display:inline;fill:none" />
    <rect
       ry="3.7572646"
       y="271.8403"
       x="471.70508"
       height="27.5"
       width="77.5"
       id="rect3776-3-31-4-3"
       style="stroke-linejoin:round;stroke-opacity:1;stroke:#2ca02c;stroke-linecap:square;stroke-miterlimit:4;stroke-dasharray:none;stroke-width:2.49999976000000013;display:inline;fill:none" />
    <path
       style="opacity:0.75;fill:none;stroke:#2ca02c;stroke-width:1.99999976;stroke-linecap:round;stroke-linejoin:miter;stroke-miterlimit:4;stroke-opacity:1;stroke-dasharray:none;marker-end:url(#marker8741n)"
       d="m 260.23255,269.33766 93.90676,15.566"
       id="path10360"
       inkscape:connector-type="polyline"
       inkscape:connector-curvature="0" />
    <path
       sodipodi:type="arc"
       style="opacity:0.75;fill:url(#radialGradient14670);fill-opacity:1;stroke:none"
       id="path10794"
       sodipodi:cx="295"
       sodipodi:cy="277.36218"
       sodipodi:rx="10"
       sodipodi:ry="10"
       d="m 305,277.36218 a 10,10 0 1 1 -20,0 10,10 0 1 1 20,0 z"
       transform="matrix(0.9,0,0,0.9,34.578402,26.3874)" />
    <path
       sodipodi:type="arc"
       style="opacity:0.75;fill:url(#radialGradient10819);fill-opacity:1;stroke:none"
       id="path10794-5"
       sodipodi:cx="295"
       sodipodi:cy="277.36218"
       sodipodi:rx="10"
       sodipodi:ry="10"
       d="m 305,277.36218 a 10,10 0 1 1 -20,0 10,10 0 1 1 20,0 z"
       transform="matrix(0.9,0,0,0.9,154.55236,142.7179)" />
    <path
       style="opacity:0.75;fill:none;stroke:#000000;stroke-width:1.99999988;stroke-linecap:round;stroke-linejoin:miter;stroke-miterlimit:4;stroke-opacity:1;stroke-dasharray:none;marker-end:url(#marker8741)"
       d="m 435.08232,285.5903 34.61699,0"
       id="path10838"
       inkscape:connector-type="polyline"
       inkscape:connector-curvature="0" />
    <path
       style="opacity:0.75;fill:none;stroke:#000000;stroke-width:1.9999994;stroke-linecap:round;stroke-linejoin:miter;stroke-miterlimit:4;stroke-opacity:1;stroke-dasharray:none;marker-end:url(#marker8741)"
       d="M 515.55266,361.25437 C 515.1366,303.4314 515.1366,303.4314 515.1366,303.4314"
       id="path11056"
       inkscape:connector-curvature="0" />
    <path
       style="opacity:0.75;fill:none;stroke:#000000;stroke-width:2;stroke-linecap:round;stroke-linejoin:miter;stroke-miterlimit:4;stroke-opacity:1;stroke-dasharray:none;marker-end:url(#marker8741)"
       d="m 499.1958,300.7403 c -77.47344,80.55196 -77.47344,80.55196 -77.47344,80.55196"
       id="path11278"
       inkscape:connector-curvature="0" />
    <path
       style="fill:none;stroke:#000000;stroke-width:2;stroke-linecap:round;stroke-linejoin:miter;stroke-miterlimit:4;stroke-opacity:1;stroke-dasharray:none;marker-end:url(#marker8741)"
       d="m 534.19999,392.32535 56.48005,0.0368"
       id="path12146"
       inkscape:connector-type="polyline"
       inkscape:connector-curvature="0" />
    <path
       style="fill:none;stroke:#000000;stroke-width:2;stroke-linecap:round;stroke-linejoin:miter;stroke-miterlimit:4;stroke-opacity:1;stroke-dasharray:none;marker-end:url(#marker8741)"
       d="m 474,299.1398 c -18.9956,16.6217 -18.9956,16.6217 -18.9956,16.6217 l -154.96406,0 0,-28.04911"
       id="path14672"
       inkscape:connector-curvature="0" />
  </g>
  <g
     inkscape:groupmode="layer"
     id="layer2"
     inkscape:label="latex"
     style="display:none"
     sodipodi:insensitive="true">
    <text
       sodipodi:linespacing="125%"
       id="text3774"
       y="379.14307"
       x="360.0542"
       style="font-size:14px;font-style:normal;font-variant:normal;font-weight:normal;font-stretch:normal;text-align:center;line-height:125%;letter-spacing:0px;word-spacing:0px;writing-mode:lr-tb;text-anchor:middle;fill:#000000;fill-opacity:1;stroke:none;display:inline;font-family:Sans;-inkscape-font-specification:Sans"
       xml:space="preserve"><tspan
         sodipodi:role="line"
         id="tspan9082"
         x="360.0542"
         y="379.14307">Basolateral</tspan><tspan
         sodipodi:role="line"
         id="tspan9084"
         x="360.0542"
         y="396.64307">Nucleus</tspan><tspan
         sodipodi:role="line"
         id="tspan9086"
         x="360.0542"
         y="414.14307">(BLA)</tspan></text>
    <text
       sodipodi:linespacing="125%"
       id="text3774-9"
       y="379.19455"
       x="489.64178"
       style="font-size:14px;font-style:normal;font-variant:normal;font-weight:normal;font-stretch:normal;text-align:center;line-height:125%;letter-spacing:0px;word-spacing:0px;writing-mode:lr-tb;text-anchor:middle;fill:#000000;fill-opacity:1;stroke:none;display:inline;font-family:Sans;-inkscape-font-specification:Sans"
       xml:space="preserve"><tspan
         sodipodi:role="line"
         id="tspan9088"
         x="489.64178"
         y="379.19455">Central</tspan><tspan
         sodipodi:role="line"
         id="tspan9090"
         x="489.64178"
         y="396.69455">Nucleus</tspan><tspan
         sodipodi:role="line"
         id="tspan9092"
         x="489.64178"
         y="414.19455">(CeA)</tspan></text>
    <text
       sodipodi:linespacing="125%"
       id="text3774-9-1-2"
       y="434.47604"
       x="396.51202"
       style="font-size:12px;font-style:normal;font-variant:normal;font-weight:normal;font-stretch:normal;text-align:center;line-height:125%;letter-spacing:0px;word-spacing:0px;writing-mode:lr-tb;text-anchor:middle;fill:#000000;fill-opacity:1;stroke:none;display:inline;font-family:Sans;-inkscape-font-specification:Sans"
       xml:space="preserve"><tspan
         y="434.47604"
         x="396.51202"
         id="tspan7156"
         sodipodi:role="line">Amygdaloid</tspan><tspan
         y="449.47604"
         x="396.51202"
         id="tspan7158"
         sodipodi:role="line">Complex</tspan></text>
    <text
       sodipodi:linespacing="125%"
       id="text3774-38"
       y="265.05453"
       x="184.86993"
       style="font-size:14px;font-style:normal;font-variant:normal;font-weight:normal;font-stretch:normal;text-align:center;line-height:125%;letter-spacing:0px;word-spacing:0px;writing-mode:lr-tb;text-anchor:middle;fill:#000000;fill-opacity:1;stroke:none;display:inline;font-family:Sans;-inkscape-font-specification:Sans"
       xml:space="preserve"><tspan
         sodipodi:role="line"
         id="tspan4370"
         x="184.86993"
         y="265.05453">Medial Prefrontal</tspan><tspan
         sodipodi:role="line"
         id="tspan4372"
         x="184.86993"
         y="282.55453">Cortex (mPFC)</tspan></text>
    <text
       sodipodi:linespacing="125%"
       id="text3774-3-0"
       y="421.13083"
       x="144.43137"
       style="font-size:12px;font-style:normal;font-variant:normal;font-weight:normal;font-stretch:normal;text-align:center;line-height:125%;letter-spacing:0px;word-spacing:0px;writing-mode:lr-tb;text-anchor:middle;fill:#000000;fill-opacity:1;stroke:none;display:inline;font-family:Sans;-inkscape-font-specification:Sans"
       xml:space="preserve"><tspan
         sodipodi:role="line"
         id="tspan4428"
         x="144.43137"
         y="421.13083">MGv</tspan></text>
    <text
       sodipodi:linespacing="125%"
       id="text3774-38-1"
       y="328.82376"
       x="185.06464"
       style="font-size:14px;font-style:normal;font-variant:normal;font-weight:normal;font-stretch:normal;text-align:center;line-height:125%;letter-spacing:0px;word-spacing:0px;writing-mode:lr-tb;text-anchor:middle;fill:#000000;fill-opacity:1;stroke:none;display:inline;font-family:Sans;-inkscape-font-specification:Sans"
       xml:space="preserve"><tspan
         sodipodi:role="line"
         id="tspan4398"
         x="185.06464"
         y="328.82376">Auditory</tspan><tspan
         sodipodi:role="line"
         id="tspan4400"
         x="185.06464"
         y="346.32376">Cortex (AC)</tspan></text>
    <text
       sodipodi:linespacing="125%"
       id="text3774-38-1-0"
       y="393.20203"
       x="185.39392"
       style="font-size:14px;font-style:normal;font-variant:normal;font-weight:normal;font-stretch:normal;text-align:center;line-height:125%;letter-spacing:0px;word-spacing:0px;writing-mode:lr-tb;text-anchor:middle;fill:#000000;fill-opacity:1;stroke:none;display:inline;font-family:Sans;-inkscape-font-specification:Sans"
       xml:space="preserve"><tspan
         sodipodi:role="line"
         id="tspan4426"
         x="185.39392"
         y="393.20203">Auditory Thalamus</tspan></text>
    <text
       sodipodi:linespacing="125%"
       id="text3774-3-0-8-7"
       y="420.54849"
       x="214.48773"
       style="font-size:12px;font-style:normal;font-variant:normal;font-weight:normal;font-stretch:normal;text-align:center;line-height:125%;letter-spacing:0px;word-spacing:0px;writing-mode:lr-tb;text-anchor:middle;fill:#000000;fill-opacity:1;stroke:none;display:inline;font-family:Sans;-inkscape-font-specification:Sans"
       xml:space="preserve"><tspan
         sodipodi:role="line"
         id="tspan4451-1"
         x="214.48773"
         y="420.54849">MGm/PIN</tspan></text>
    <text
       sodipodi:linespacing="125%"
       id="text3774-38-1-0-2"
       y="502.76089"
       x="185.00494"
       style="font-size:14px;font-style:normal;font-variant:normal;font-weight:normal;font-stretch:normal;text-align:center;line-height:125%;letter-spacing:0px;word-spacing:0px;writing-mode:lr-tb;text-anchor:middle;fill:#000000;fill-opacity:1;stroke:none;display:inline;font-family:Sans;-inkscape-font-specification:Sans"
       xml:space="preserve"><tspan
         sodipodi:role="line"
         id="tspan5672"
         x="185.00494"
         y="502.76089">CS</tspan><tspan
         sodipodi:role="line"
         id="tspan5674"
         x="185.00494"
         y="520.26086">(Auditory Input)</tspan></text>
    <text
       sodipodi:linespacing="125%"
       id="text3774-38-1-0-2-0"
       y="512.80762"
       x="314.74121"
       style="font-size:14px;font-style:normal;font-variant:normal;font-weight:normal;font-stretch:normal;text-align:center;line-height:125%;letter-spacing:0px;word-spacing:0px;writing-mode:lr-tb;text-anchor:middle;fill:#000000;fill-opacity:1;stroke:none;display:inline;font-family:Sans;-inkscape-font-specification:Sans"
       xml:space="preserve"><tspan
         sodipodi:role="line"
         id="tspan5670"
         x="314.74121"
         y="512.80762">US</tspan></text>
    <text
       sodipodi:linespacing="125%"
       id="text3774-38-8"
       y="265.8606"
       x="453.13232"
       style="font-size:14px;font-style:normal;font-variant:normal;font-weight:normal;font-stretch:normal;text-align:center;line-height:125%;letter-spacing:0px;word-spacing:0px;writing-mode:lr-tb;text-anchor:middle;fill:#000000;fill-opacity:1;stroke:none;display:inline;font-family:Sans;-inkscape-font-specification:Sans"
       xml:space="preserve"><tspan
         sodipodi:role="line"
         id="tspan9080"
         x="453.13232"
         y="265.8606">Ventral Tegmental Area (VTA)</tspan></text>
    <text
       sodipodi:linespacing="125%"
       id="text3774-9-1-2-2"
       y="360.29346"
       x="425.23285"
       style="font-size:14px;font-style:normal;font-variant:normal;font-weight:normal;font-stretch:normal;text-align:center;line-height:125%;letter-spacing:0px;word-spacing:0px;writing-mode:lr-tb;text-anchor:middle;fill:#000000;fill-opacity:1;stroke:none;display:inline;font-family:Sans;-inkscape-font-specification:Sans"
       xml:space="preserve"><tspan
         sodipodi:role="line"
         id="tspan10273"
         x="425.23285"
         y="360.29346">$E_{amg}$</tspan></text>
    <text
       sodipodi:linespacing="125%"
       id="text3774-9-1-2-2-0"
       y="289.29346"
       x="405.09619"
       style="font-size:14px;font-style:normal;font-variant:normal;font-weight:normal;font-stretch:normal;text-align:center;line-height:125%;letter-spacing:0px;word-spacing:0px;writing-mode:lr-tb;text-anchor:middle;fill:#000000;fill-opacity:1;stroke:none;display:inline;font-family:Sans;-inkscape-font-specification:Sans"
       xml:space="preserve"><tspan
         sodipodi:role="line"
         id="tspan10332"
         x="405.09619"
         y="289.29346">$VTA_{pfc}$</tspan></text>
    <text
       sodipodi:linespacing="125%"
       id="text3774-9-1-2-2-0-4"
       y="289.36218"
       x="527.56097"
       style="font-size:14px;font-style:normal;font-variant:normal;font-weight:normal;font-stretch:normal;text-align:center;line-height:125%;letter-spacing:0px;word-spacing:0px;writing-mode:lr-tb;text-anchor:middle;fill:#000000;fill-opacity:1;stroke:none;display:inline;font-family:Sans;-inkscape-font-specification:Sans"
       xml:space="preserve"><tspan
         sodipodi:role="line"
         id="tspan10358"
         x="527.56097"
         y="289.36218">$VTA_{phas}$</tspan></text>
    <text
       sodipodi:linespacing="125%"
       id="text3774-9-1-2-2-0-6"
       y="262.36218"
       x="311"
       style="font-size:14px;font-style:normal;font-variant:normal;font-weight:normal;font-stretch:normal;text-align:center;line-height:125%;letter-spacing:0px;word-spacing:0px;writing-mode:lr-tb;text-anchor:middle;fill:#000000;fill-opacity:1;stroke:none;display:inline;font-family:Sans;-inkscape-font-specification:Sans"
       xml:space="preserve"><tspan
         sodipodi:role="line"
         id="tspan21620"
         x="311"
         y="262.36218">$E_{pfc}$</tspan></text>
  </g>
  <g
     inkscape:groupmode="layer"
     id="layer3"
     inkscape:label="text">
    <text
       sodipodi:linespacing="125%"
       id="text3774-7"
       y="378.97528"
       x="360.18427"
       style="font-size:14px;font-style:normal;font-variant:normal;font-weight:normal;font-stretch:normal;text-align:center;line-height:125%;letter-spacing:0px;word-spacing:0px;writing-mode:lr-tb;text-anchor:middle;fill:#000000;fill-opacity:1;stroke:none;display:inline;font-family:Sans;-inkscape-font-specification:Sans"
       xml:space="preserve"><tspan
         sodipodi:role="line"
         id="tspan9082-7"
         x="360.18427"
         y="378.97528">Basolateral</tspan><tspan
         sodipodi:role="line"
         id="tspan9084-3"
         x="360.18427"
         y="396.47528">Nucleus</tspan><tspan
         sodipodi:role="line"
         id="tspan9086-1"
         x="360.18427"
         y="413.97528">(BLA)</tspan></text>
    <text
       sodipodi:linespacing="125%"
       id="text3774-9-0"
       y="379.02676"
       x="489.77185"
       style="font-size:14px;font-style:normal;font-variant:normal;font-weight:normal;font-stretch:normal;text-align:center;line-height:125%;letter-spacing:0px;word-spacing:0px;writing-mode:lr-tb;text-anchor:middle;fill:#000000;fill-opacity:1;stroke:none;display:inline;font-family:Sans;-inkscape-font-specification:Sans"
       xml:space="preserve"><tspan
         sodipodi:role="line"
         id="tspan9088-7"
         x="489.77185"
         y="379.02676">Central</tspan><tspan
         sodipodi:role="line"
         id="tspan9090-8"
         x="489.77185"
         y="396.52676">Nucleus</tspan><tspan
         sodipodi:role="line"
         id="tspan9092-9"
         x="489.77185"
         y="414.02676">(CeA)</tspan></text>
    <text
       sodipodi:linespacing="125%"
       id="text3774-9-1-2-0"
       y="434.30826"
       x="396.64209"
       style="font-size:12px;font-style:normal;font-variant:normal;font-weight:normal;font-stretch:normal;text-align:center;line-height:125%;letter-spacing:0px;word-spacing:0px;writing-mode:lr-tb;text-anchor:middle;fill:#000000;fill-opacity:1;stroke:none;display:inline;font-family:Sans;-inkscape-font-specification:Sans"
       xml:space="preserve"><tspan
         y="434.30826"
         x="396.64209"
         id="tspan7156-6"
         sodipodi:role="line">Amygdaloid</tspan><tspan
         y="449.30826"
         x="396.64209"
         id="tspan7158-4"
         sodipodi:role="line">Complex</tspan></text>
    <text
       sodipodi:linespacing="125%"
       id="text3774-38-9"
       y="264.88675"
       x="185"
       style="font-size:14px;font-style:normal;font-variant:normal;font-weight:normal;font-stretch:normal;text-align:center;line-height:125%;letter-spacing:0px;word-spacing:0px;writing-mode:lr-tb;text-anchor:middle;fill:#000000;fill-opacity:1;stroke:none;display:inline;font-family:Sans;-inkscape-font-specification:Sans"
       xml:space="preserve"><tspan
         sodipodi:role="line"
         id="tspan4370-1"
         x="185"
         y="264.88675">Medial Prefrontal</tspan><tspan
         sodipodi:role="line"
         id="tspan4372-6"
         x="185"
         y="282.38675">Cortex (mPFC)</tspan></text>
    <text
       sodipodi:linespacing="125%"
       id="text3774-3-0-4"
       y="420.96304"
       x="144.56143"
       style="font-size:12px;font-style:normal;font-variant:normal;font-weight:normal;font-stretch:normal;text-align:center;line-height:125%;letter-spacing:0px;word-spacing:0px;writing-mode:lr-tb;text-anchor:middle;fill:#000000;fill-opacity:1;stroke:none;display:inline;font-family:Sans;-inkscape-font-specification:Sans"
       xml:space="preserve"><tspan
         sodipodi:role="line"
         id="tspan4428-7"
         x="144.56143"
         y="420.96304">MGv</tspan></text>
    <text
       sodipodi:linespacing="125%"
       id="text3774-38-1-1"
       y="328.65598"
       x="185.1947"
       style="font-size:14px;font-style:normal;font-variant:normal;font-weight:normal;font-stretch:normal;text-align:center;line-height:125%;letter-spacing:0px;word-spacing:0px;writing-mode:lr-tb;text-anchor:middle;fill:#000000;fill-opacity:1;stroke:none;display:inline;font-family:Sans;-inkscape-font-specification:Sans"
       xml:space="preserve"><tspan
         sodipodi:role="line"
         id="tspan4398-1"
         x="185.1947"
         y="328.65598">Auditory</tspan><tspan
         sodipodi:role="line"
         id="tspan4400-4"
         x="185.1947"
         y="346.15598">Cortex (AC)</tspan></text>
    <text
       sodipodi:linespacing="125%"
       id="text3774-38-1-0-4"
       y="393.03424"
       x="185.52399"
       style="font-size:14px;font-style:normal;font-variant:normal;font-weight:normal;font-stretch:normal;text-align:center;line-height:125%;letter-spacing:0px;word-spacing:0px;writing-mode:lr-tb;text-anchor:middle;fill:#000000;fill-opacity:1;stroke:none;display:inline;font-family:Sans;-inkscape-font-specification:Sans"
       xml:space="preserve"><tspan
         sodipodi:role="line"
         id="tspan4426-7"
         x="185.52399"
         y="393.03424">Auditory Thalamus</tspan></text>
    <text
       sodipodi:linespacing="125%"
       id="text3774-3-0-8-7-0"
       y="420.38071"
       x="214.6178"
       style="font-size:12px;font-style:normal;font-variant:normal;font-weight:normal;font-stretch:normal;text-align:center;line-height:125%;letter-spacing:0px;word-spacing:0px;writing-mode:lr-tb;text-anchor:middle;fill:#000000;fill-opacity:1;stroke:none;display:inline;font-family:Sans;-inkscape-font-specification:Sans"
       xml:space="preserve"><tspan
         sodipodi:role="line"
         id="tspan4451-1-3"
         x="214.6178"
         y="420.38071">MGm/PIN</tspan></text>
    <text
       sodipodi:linespacing="125%"
       id="text3774-38-1-0-2-3"
       y="502.59311"
       x="185.13501"
       style="font-size:14px;font-style:normal;font-variant:normal;font-weight:normal;font-stretch:normal;text-align:center;line-height:125%;letter-spacing:0px;word-spacing:0px;writing-mode:lr-tb;text-anchor:middle;fill:#000000;fill-opacity:1;stroke:none;display:inline;font-family:Sans;-inkscape-font-specification:Sans"
       xml:space="preserve"><tspan
         sodipodi:role="line"
         id="tspan5672-9"
         x="185.13501"
         y="502.59311">CS</tspan><tspan
         sodipodi:role="line"
         id="tspan5674-3"
         x="185.13501"
         y="520.09314">(Auditory Input)</tspan></text>
    <text
       sodipodi:linespacing="125%"
       id="text3774-38-1-0-2-0-8"
       y="512.64001"
       x="314.87128"
       style="font-size:14px;font-style:normal;font-variant:normal;font-weight:normal;font-stretch:normal;text-align:center;line-height:125%;letter-spacing:0px;word-spacing:0px;writing-mode:lr-tb;text-anchor:middle;fill:#000000;fill-opacity:1;stroke:none;display:inline;font-family:Sans;-inkscape-font-specification:Sans"
       xml:space="preserve"><tspan
         sodipodi:role="line"
         id="tspan5670-9"
         x="314.87128"
         y="512.64001">US</tspan></text>
    <text
       sodipodi:linespacing="125%"
       id="text3774-38-8-7"
       y="265.69284"
       x="453.26239"
       style="font-size:14px;font-style:normal;font-variant:normal;font-weight:normal;font-stretch:normal;text-align:center;line-height:125%;letter-spacing:0px;word-spacing:0px;writing-mode:lr-tb;text-anchor:middle;fill:#000000;fill-opacity:1;stroke:none;display:inline;font-family:Sans;-inkscape-font-specification:Sans"
       xml:space="preserve"><tspan
         sodipodi:role="line"
         id="tspan9080-4"
         x="453.26239"
         y="265.69284">Ventral Tegmental Area (VTA)</tspan></text>
    <text
       sodipodi:linespacing="125%"
       id="text3774-3-0-4-1"
       y="262.36218"
       x="300"
       style="font-size:12px;font-style:normal;font-variant:normal;font-weight:normal;font-stretch:normal;text-align:center;line-height:125%;letter-spacing:0px;word-spacing:0px;writing-mode:lr;text-anchor:middle;fill:#000000;fill-opacity:1;stroke:none;display:inline;font-family:Sans;-inkscape-font-specification:Sans"
       xml:space="preserve"><tspan
         sodipodi:role="line"
         id="tspan3435">Epfc</tspan></text>
    <text
       sodipodi:linespacing="125%"
       id="text3774-3-0-4-1-1"
       y="288.90085"
       x="395.91888"
       style="font-size:12px;font-style:normal;font-variant:normal;font-weight:normal;font-stretch:normal;text-align:center;line-height:125%;letter-spacing:0px;word-spacing:0px;writing-mode:lr-tb;text-anchor:middle;fill:#000000;fill-opacity:1;stroke:none;display:inline;font-family:Sans;-inkscape-font-specification:Sans"
       xml:space="preserve"><tspan
         sodipodi:role="line"
         id="tspan3437"
         x="395.91888"
         y="288.90085">VTApfc</tspan></text>
    <text
       sodipodi:linespacing="125%"
       id="text3774-3-0-4-1-1-7"
       y="288.90085"
       x="510.95605"
       style="font-size:12px;font-style:normal;font-variant:normal;font-weight:normal;font-stretch:normal;text-align:center;line-height:125%;letter-spacing:0px;word-spacing:0px;writing-mode:lr-tb;text-anchor:middle;fill:#000000;fill-opacity:1;stroke:none;display:inline;font-family:Sans;-inkscape-font-specification:Sans"
       xml:space="preserve"><tspan
         sodipodi:role="line"
         id="tspan3439"
         x="510.95605"
         y="288.90085">VTApha</tspan></text>
    <text
       sodipodi:linespacing="125%"
       id="text3774-3-0-4-1-1-7-5"
       y="362.36218"
       x="420"
       style="font-size:12px;font-style:normal;font-variant:normal;font-weight:normal;font-stretch:normal;text-align:center;line-height:125%;letter-spacing:0px;word-spacing:0px;writing-mode:lr;text-anchor:middle;fill:#000000;fill-opacity:1;stroke:none;display:inline;font-family:Sans;-inkscape-font-specification:Sans"
       xml:space="preserve"><tspan
         sodipodi:role="line"
         id="tspan3441">Eamg</tspan></text>
  </g>
</svg>
